<svg xmlns="http://www.w3.org/2000/svg" xmlns:xlink="http://www.w3.org/1999/xlink" preserveAspectRatio="xMidYMid" width="25" height="40" viewBox="0 0 25 40">
  <defs>
    <style>
      .cls-1 {
        fill: #376e91;
        fill-rule: evenodd;
      }
    </style>
  </defs>
  <path d="M21.943,0.014 C22.713,0.014 23.384,0.295 23.955,0.854 C24.526,1.413 24.877,2.136 25.011,3.020 L25.011,36.979 C25.011,37.864 24.718,38.586 24.134,39.145 C23.550,39.706 22.819,39.985 21.943,39.985 L3.058,39.985 C2.181,39.985 1.450,39.706 0.866,39.145 C0.282,38.586 -0.010,37.864 -0.010,36.979 L-0.010,3.020 C-0.010,2.136 0.282,1.413 0.866,0.854 C1.450,0.295 2.181,0.014 3.058,0.014 L21.943,0.014 L21.943,0.014 ZM12.500,37.994 C13.004,37.994 13.470,37.819 13.895,37.467 C14.319,37.116 14.532,36.627 14.532,36.003 C14.532,35.379 14.319,34.885 13.895,34.520 C13.470,34.156 13.004,33.974 12.500,33.974 C11.863,33.974 11.365,34.156 11.006,34.520 C10.648,34.885 10.468,35.379 10.468,36.003 C10.468,36.627 10.681,37.116 11.106,37.467 C11.530,37.819 11.995,37.994 12.500,37.994 L12.500,37.994 ZM22.700,32.256 L22.700,7.743 L2.301,7.743 L2.301,32.256 L22.700,32.256 L22.700,32.256 Z" class="cls-1"/>
</svg>
